{
    "MongoDBHost" :"ind-prod-mongos.yupl.us",
    "MongoDBDatabase":"youplus_production",
    "MongoDBUsername":"youplus",
    "MongoDBPassword":"youplus9091",
    "YouplusQTagsColl":"youplus_q_tags",
    "youplususercoll":"mongo_users",
    "youplusgroupcoll":"groups",
    "youplusengagementcoll":"user_engagement",
    "crawledInfoColl":"crawled_info",
    "elastic_host":"https://ind-es.yupl.us",
    "ios_cert_file":"dev.p12",
    "ios_password":"Youplus123@",
    "ios_is_dev":true,
    "vichar_notification_title":"New Survey from Mic.",
    "vichar_notification_body":"Please attend the survey now. Let your voice be heard and be a part of the change around you!",
    "Sender":"notifications@youplus.com",
    "Sub":"Email Confirmation.",
    "Body":"Please Click On The Link To Confirm Your Account</h1><p><p> https://www.google.com/ </p>",
    "TextBody":"Please Confirm Your Account.",
    "CharSet":"UTF-8",
    "msg91Host":"http://control.msg91.com",
    "msg91SendOtpApi":"/api/sendotp.php?",
    "msg91VerifyOtpApi":"/api/verifyRequestOTP.php?",
    "msg91AuthKey":"125910A85t0t2o57e1377a",
    "msg91Sender":"YUPLUS",
    "msg91OtpLength":"6",
    "msg91OtpExpire":"2",
    "Region": "us-east-1",
    "AccessKey":"AKIAJSCIMJ3YXBLCTSHA",
    "SecretKey":"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",
    "log_level":"info",
    "youplusqvmcoll":"question_video_mapping",
    "youplusopfeedbackcoll":"op_feedback",
    "youplusstaticpagecoll":"static_page",
    "aws_id": "AKIAIYMJCPQ4B3UFG7PQ",
    "aws_secret": "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",
    "aws_region": "ap-southeast-1",
    "aws_bucket_name_for_video": "test-transcription-bucket",
    "aws_bucket_name_for_thumbnail": "ind-opinion-thumbnail",
    "aws_cloudfront_url": "https://dvrevj1nlfko5.cloudfront.net",
    "redis_host":"dev-redis.yupl.us",
    "redis_port":6379,
    "redis_password":"cdd5a67f0cc400993f04638cdee65014f194abfe",
    "crawledInfoColl":"crawled_info",
    "youpluswidgetcoll": "widget_configs",
    "goAPIHost":"https://dev-api.yupl.us",
    "irEndPoint":"/ir/v1/videos?params=",
    "rmq_host":"amqp://root:youplus_4321qwer@ad-rabbitmq.yupl.us:5672/",
    "EngagementMongoDBHost" :"mdb-analytics-01.rs.yupl.us",
    "EngagementMongoDBDatabase":"youplus_production",
    "EngagementMongoDBUsername":"youplus",
    "EngagementMongoDBPassword":"up!usaneng"
  }
